{
  "project_info": {
    "project_number": "1074265341738",
    "firebase_url": "https://golokal-8a76d.firebaseio.com",
    "project_id": "golokal-8a76d",
    "storage_bucket": "golokal-8a76d.appspot.com"
  },
  "client": [
    {
      "client_info": {
        "mobilesdk_app_id": "1:1074265341738:android:681e9727418c3095",
        "android_client_info": {
          "package_name": "com.app.golokal"
        }
      },
      "oauth_client": [
        {
          "client_id": "1074265341738-q81pqnqhhgvndvjavv82thlnjsnsprsh.apps.googleusercontent.com",
          "client_type": 1,
          "android_info": {
            "package_name": "com.app.golokal",
            "certificate_hash": "0243773c1fb0b405bdb6537066d795ef7ace4031"
          }
        },
        {
          "client_id": "1074265341738-3mheucuij5m011d61grt417g4ilgibet.apps.googleusercontent.com",
          "client_type": 1,
          "android_info": {
            "package_name": "com.app.golokal",
            "certificate_hash": "fae213976a92305737de39456bb5ddbe4b3d60ec"
          }
        },
        {
          "client_id": "1074265341738-09g6222sg0i1rugg0hk7p0k83d1k8ead.apps.googleusercontent.com",
          "client_type": 1,
          "android_info": {
            "package_name": "com.app.golokal",
            "certificate_hash": "57b0bca73e10dfdc8ab7fca0910be50532161876"
          }
        },
        {
          "client_id": "1074265341738-m3pikhtj109pfntho88gfi2d46kbf64c.apps.googleusercontent.com",
          "client_type": 3
        },
        {
          "client_id": "1074265341738-m3pikhtj109pfntho88gfi2d46kbf64c.apps.googleusercontent.com",
          "client_type": 3
        }
      ],
      "api_key": [
        {
          "current_key": "AIzaSyBvtfdgwS46FBWthYUJfDt0gZZbPQ5ZeX0"
        }
      ],
      "services": {
        "analytics_service": {
          "status": 1
        },
        "appinvite_service": {
          "status": 2,
          "other_platform_oauth_client": [
            {
              "client_id": "1074265341738-m3pikhtj109pfntho88gfi2d46kbf64c.apps.googleusercontent.com",
              "client_type": 3
            },
            {
              "client_id": "1074265341738-pslcj4en6sghuo40ft04qbb9oan34ubf.apps.googleusercontent.com",
              "client_type": 2,
              "ios_info": {
                "bundle_id": "com.GoLokalprovider"
              }
            }
          ]
        },
        "ads_service": {
          "status": 2
        }
      }
    },
    {
      "client_info": {
        "mobilesdk_app_id": "1:1074265341738:android:7c9144a90e7ef9f7",
        "android_client_info": {
          "package_name": "com.app.golokalprovider"
        }
      },
      "oauth_client": [
        {
          "client_id": "1074265341738-949il0b2e3esqnhuf1kafeufoufhibkv.apps.googleusercontent.com",
          "client_type": 1,
          "android_info": {
            "package_name": "com.app.golokalprovider",
            "certificate_hash": "08b2e7a9173f35d695ec1bddc95f0bf29adf2ee6"
          }
        },
        {
          "client_id": "1074265341738-98b467i5lcdpeqo9rpprq2r1506nr9gq.apps.googleusercontent.com",
          "client_type": 1,
          "android_info": {
            "package_name": "com.app.golokalprovider",
            "certificate_hash": "fae213976a92305737de39456bb5ddbe4b3d60ec"
          }
        },
        {
          "client_id": "1074265341738-2ck48o48as9gfvhm44geer2g80g3h0a7.apps.googleusercontent.com",
          "client_type": 1,
          "android_info": {
            "package_name": "com.app.golokalprovider",
            "certificate_hash": "57b0bca73e10dfdc8ab7fca0910be50532161876"
          }
        },
        {
          "client_id": "1074265341738-m3pikhtj109pfntho88gfi2d46kbf64c.apps.googleusercontent.com",
          "client_type": 3
        },
        {
          "client_id": "1074265341738-m3pikhtj109pfntho88gfi2d46kbf64c.apps.googleusercontent.com",
          "client_type": 3
        }
      ],
      "api_key": [
        {
          "current_key": "AIzaSyBvtfdgwS46FBWthYUJfDt0gZZbPQ5ZeX0"
        }
      ],
      "services": {
        "analytics_service": {
          "status": 1
        },
        "appinvite_service": {
          "status": 2,
          "other_platform_oauth_client": [
            {
              "client_id": "1074265341738-m3pikhtj109pfntho88gfi2d46kbf64c.apps.googleusercontent.com",
              "client_type": 3
            },
            {
              "client_id": "1074265341738-pslcj4en6sghuo40ft04qbb9oan34ubf.apps.googleusercontent.com",
              "client_type": 2,
              "ios_info": {
                "bundle_id": "com.GoLokalprovider"
              }
            }
          ]
        },
        "ads_service": {
          "status": 2
        }
      }
    }
  ],
  "configuration_version": "1"
}